HW2
…
Now that I have cleaned up the names of the city, I will calculate the average inspection scores by cities.

I created a table to show the cities in one column, and their averaging inspection scores. I named the object city_avg_score_table, and used the group_by() function to group by cities. Then I used the summarize() function to direct R to produce the averages of the scores using mean.

Based off the table, there seems to be varying scores among the different cities. Although there are differences among scores, the variation is not super big.

city_avg_score_table <- restaurant_inspec %>% 
  group_by(CITY) %>% 
  summarize(avg_score = mean(SCORE, na.rm = TRUE))

city_avg_score_table

# A tibble: 23 × 2
   CITY          avg_score
   <chr>             <dbl>
 1 ANGIER             94.5
 2 APEX               97.6
 3 CARY               97.6
 4 CLAYTON            96.1
 5 FUQUAY VARINA      97.3
 6 FUQUAY-VARINA      97.5
 7 GARNER             96.3
 8 HOLLY SPRING       99  
 9 HOLLY SPRINGS      98.3
10 KNIGHTDALE         96.2
# ℹ 13 more rows
…
Question 5 —

To find the sample size for each city, I created an object “city_sample” and used the group_by function to group by CITY to find sample sizes among each city. Then I used the summarize function to make a table containing the sample sizes by using n().

Based off the table, it is clear that the sample sizes vary a lot with one another. Some sample sizes are as small as 1, while others have over 1000 samples. This is important to consider when calculating averages within the cities as sample sizes are not equal.

city_sample <- restaurant_inspec %>% 
  group_by(CITY) %>% 
  summarize(sample_size = n())

city_sample

# A tibble: 23 × 2
   CITY          sample_size
   <chr>               <int>
 1 ANGIER                  1
 2 APEX                  185
 3 CARY                  573
 4 CLAYTON                 4
 5 FUQUAY VARINA          75
 6 FUQUAY-VARINA          39
 7 GARNER                133
 8 HOLLY SPRING            1
 9 HOLLY SPRINGS         106
10 KNIGHTDALE             81
# ℹ 13 more rows
…
Part 3 — Inspection Scores by City

Based off the table of the average inspection scores by city for restaurants only, there still appears to be a variation among inspection scores among different cities.

only_restaurant_city_scores <- only_restaurant %>% 
  group_by(CITY) %>% 
  summarize(avg_score = mean(SCORE, na.rm = TRUE))

only_restaurant_city_scores

# A tibble: 21 × 2
   CITY          avg_score
   <chr>             <dbl>
 1 ANGIER             94.5
 2 APEX               97.1
 3 CARY               97.3
 4 CLAYTON            93  
 5 FUQUAY VARINA      96.9
 6 FUQUAY-VARINA      97.0
 7 GARNER             95.8
 8 HOLLY SPRING       99  
 9 HOLLY SPRINGS      98.0
10 KNIGHTDALE         95.1
# ℹ 11 more rows
…
